<?xml version="1.0" standalone="no"?>
<!DOCTYPE svg PUBLIC "-//W3C//DTD SVG 20010904//EN"
 "http://www.w3.org/TR/2001/REC-SVG-20010904/DTD/svg10.dtd">
<svg version="1.0" xmlns="http://www.w3.org/2000/svg"
 width="700.000000pt" height="700.000000pt" viewBox="0 0 700.000000 700.000000"
 preserveAspectRatio="xMidYMid meet">
<metadata>
Created by potrace 1.11, written by Peter Selinger 2001-2013
</metadata>
<g transform="translate(0.000000,700.000000) scale(0.100000,-0.100000)"
fill="#000000" stroke="none">
<path d="M3036 6912 c-28 -46 -29 -595 -1 -792 2 -14 9 -63 15 -110 31 -234
78 -397 165 -575 149 -305 392 -574 720 -797 61 -42 130 -87 155 -100 25 -14
74 -42 110 -63 36 -20 121 -66 190 -102 296 -156 447 -238 533 -290 89 -53
377 -242 387 -253 3 -3 48 -38 101 -77 182 -137 370 -365 558 -677 29 -47 57
-89 63 -92 6 -4 9 -3 6 2 -3 5 -9 45 -12 89 -3 44 -8 96 -11 115 -2 19 -7 62
-10 95 -10 90 -14 124 -25 195 -5 36 -12 81 -15 100 -2 19 -7 46 -10 60 -3 14
-12 61 -20 105 -15 87 -17 92 -38 180 -47 187 -103 336 -197 525 -163 327
-282 494 -529 740 -246 245 -586 490 -1021 738 -91 52 -179 105 -197 118 -17
13 -34 24 -38 24 -3 0 -11 5 -18 10 -7 6 -52 40 -102 77 -201 147 -443 376
-600 567 -77 94 -91 111 -119 154 -31 45 -32 46 -40 34z"/>
<path d="M1456 5298 c3 -88 18 -237 28 -288 3 -14 8 -45 11 -70 5 -37 24 -147
49 -275 36 -184 101 -443 147 -580 121 -364 396 -696 799 -966 126 -85 239
-140 420 -207 339 -124 758 -249 1380 -410 560 -145 1000 -365 1385 -693 167
-142 358 -355 455 -507 18 -28 35 -52 38 -52 2 0 2 17 -2 38 -3 20 -8 51 -11
67 -3 17 -10 59 -16 95 -5 36 -14 85 -19 110 -6 25 -12 56 -14 70 -2 14 -11
55 -20 91 -8 37 -17 78 -20 90 -28 141 -134 474 -208 653 -88 214 -233 469
-339 593 -80 93 -275 285 -364 358 -110 89 -276 202 -410 279 -126 72 -412
213 -530 260 -49 20 -99 41 -110 46 -11 5 -58 23 -105 40 -47 17 -94 35 -105
40 -11 5 -87 30 -170 55 -268 83 -517 166 -635 212 -119 45 -125 48 -200 81
-25 11 -74 32 -110 47 -76 32 -389 188 -440 220 -19 12 -69 42 -110 66 -41 24
-96 58 -122 76 -26 18 -51 33 -56 33 -5 0 -17 8 -28 18 -10 10 -41 33 -69 51
-108 72 -264 201 -379 313 -67 65 -122 118 -122 118 -1 0 0 -33 2 -72z"/>
<path d="M785 3398 c2 -7 6 -31 9 -53 9 -73 18 -119 32 -180 8 -33 17 -71 20
-85 30 -145 209 -612 302 -790 80 -152 189 -330 234 -385 5 -5 28 -35 51 -65
80 -105 211 -242 307 -322 146 -121 412 -261 692 -363 107 -40 267 -90 314
-99 10 -2 55 -13 99 -24 44 -11 96 -23 115 -26 19 -3 46 -8 60 -11 36 -7 68
-13 120 -20 25 -3 56 -8 70 -10 90 -14 217 -23 405 -30 83 -4 170 -8 195 -10
25 -2 90 -6 145 -9 55 -4 120 -8 145 -11 25 -2 74 -7 110 -10 297 -27 591 -69
795 -114 122 -28 379 -95 440 -116 282 -97 539 -258 756 -474 117 -117 116
-119 49 54 -170 436 -421 827 -730 1135 -264 264 -459 390 -815 522 -204 76
-539 177 -675 204 -14 3 -38 9 -55 14 -16 5 -88 20 -160 34 -625 121 -897 191
-1310 334 -660 229 -1123 470 -1592 829 -68 51 -125 93 -128 93 -2 0 -3 -6 0
-12z"/>
</g>
</svg>
